…
    ## # A tibble: 1 x 2
    ##      id name  
    ##   <int> <chr> 
    ## 1     1 Europe

## Country

``` r
get_countries()
```

    ## # A tibble: 50 x 11
    ##       id name  extra_continent extra_sub_region extra_world_reg… extra_fifa
    ##    <int> <chr> <chr>           <chr>            <chr>            <chr>     
    ##  1     2 Pola… Europe          Eastern Europe   EMEA             POL       
    ##  2     5 Braz… Americas        South America    AMER             BRA       
    ##  3    11 Germ… Europe          Western Europe   EMEA             GER       
    ##  4    17 Fran… Europe          Western Europe   EMEA             FRA       
    ##  5    20 Port… Europe          Southern Europe  EMEA             POR       
    ##  6    23 Côte… Africa          Western Africa   EMEA             CIV       
    ##  7    26 Mali  Africa          Western Africa   EMEA             MLI       
    ##  8    32 Spain Europe          Southern Europe  EMEA             ESP       
    ##  9    38 Neth… Europe          Western Europe   EMEA             NED       
    ## 10    41 Euro… <NA>            <NA>             <NA>             <NA>      
    ## # … with 40 more rows, and 5 more variables: extra_iso <chr>,
    ## #   extra_iso2 <chr>, extra_longitude <chr>, extra_latitude <chr>,
    ## #   extra_flag <chr>
…
    ## # A tibble: 1 x 12
    ##      id legacy_id country_id logo_path name  is_cup current_season_…
    ##   <int>     <int>      <int> <chr>     <chr> <lgl>             <int>
    ## 1   271        43        320 https://… Supe… FALSE             12919
    ## # … with 5 more variables: current_stage_id <int>, live_standings <lgl>,
    ## #   coverage_topscorer_goals <lgl>, coverage_topscorer_assists <lgl>,
    ## #   coverage_topscorer_cards <lgl>

## Seasons

``` r
get_seasons()
```

    ## # A tibble: 28 x 6
    ##       id name  league_id is_current_seas… current_stage_id current_round_id
    ##    <int> <chr>     <int> <lgl>                       <int>            <int>
    ##  1  1273 2005…       271 FALSE                          NA               NA
    ##  2  1274 2006…       271 FALSE                          NA               NA
    ##  3  1275 2007…       271 FALSE                          NA               NA
    ##  4  1276 2008…       271 FALSE                          NA               NA
    ##  5  1277 2009…       271 FALSE                          NA               NA
    ##  6  1278 2010…       271 FALSE                          NA               NA
    ##  7  1279 2011…       271 FALSE                          NA               NA
    ##  8  1280 2012…       271 FALSE                          NA               NA
    ##  9  1281 2013…       271 FALSE                          NA               NA
    ## 10  1282 2014…       271 FALSE                          NA               NA
    ## # … with 18 more rows
…
## Head2Head

``` r
get_head2head(team1 = 309, team2 = 66)
```

    ## # A tibble: 35 x 50
    ##        id league_id season_id stage_id round_id venue_id referee_id
    ##     <int>     <int>     <int>    <int>    <int>    <int>      <int>
    ##  1 1.03e7       501     12963  7508262   147774     8946      18748
    ##  2 1.03e7       501     12963  7508262   147766     8922      14853
    ##  3 1.03e7       501     12963  7508262   147745     8946      14853
    ##  4 1.87e6       501      7953    56530   129141     8946      15815
    ##  5 1.87e6       501      7953    56530   129128     8922      14853
    ##  6 1.87e6       501      7953    56530   129122     8946      17259
    ##  7 3.79e5       501      1935     3225    52443     8946         NA
    ##  8 3.78e5       501      1935     3225    52284     8877         NA
    ##  9 3.77e5       501      1935     3225    52128     8946         NA
    ## 10 3.79e5       501      1934     3224    52432     8877         NA
    ## # … with 25 more rows, and 43 more variables: localteam_id <int>,
    ## #   visitorteam_id <int>, winner_team_id <int>, weather_report_code <chr>,
    ## #   weather_report_type <chr>, weather_report_icon <chr>,
    ## #   weather_report_temperature_temp <dbl>,
    ## #   weather_report_temperature_unit <chr>, weather_report_clouds <chr>,
    ## #   weather_report_humidity <chr>, weather_report_pressure <int>,
    ## #   weather_report_wind_speed <chr>, weather_report_wind_degree <int>,
    ## #   commentaries <lgl>, pitch <chr>, winning_odds_calculated <lgl>,
    ## #   formations_localteam_formation <chr>,
…
``` r
get_round(round_id = 147767)
```

    ## # A tibble: 1 x 7
    ##       id  name league_id season_id stage_id start      end       
    ##    <int> <int>     <int>     <int>    <int> <chr>      <chr>     
    ## 1 147767    23       501     12963  7508262 2019-01-26 2019-01-27

``` r
get_round(season_id = 12963)
```

    ## # A tibble: 38 x 7
    ##        id  name league_id season_id stage_id start      end       
    ##     <int> <int>     <int>     <int>    <int> <chr>      <chr>     
    ##  1 147745     1       501     12963  7508262 2018-08-04 2018-08-05
    ##  2 147746     2       501     12963  7508262 2018-08-11 2018-08-12
    ##  3 147747     3       501     12963  7508262 2018-08-25 2018-08-26
    ##  4 147748     4       501     12963  7508262 2018-09-01 2018-09-02
    ##  5 147749     5       501     12963  7508262 2018-09-14 2018-09-15
    ##  6 147750     6       501     12963  7508262 2018-09-22 2018-09-23
    ##  7 147751     7       501     12963  7508262 2018-09-29 2018-09-30
    ##  8 147752     8       501     12963  7508262 2018-10-06 2018-10-07
    ##  9 147753     9       501     12963  7508262 2018-10-20 2018-10-21
    ## 10 147754    10       501     12963  7508262 2018-10-23 2018-12-19
    ## # … with 28 more rows

## Odds

``` r
get_odds(10333321)
```

    ## # A tibble: 51 x 17
    ##        id name  suspended bookmaker_data_… bookmaker_data_…
    ##     <int> <chr> <lgl>                <int> <chr>           
    ##  1 1.00e0 3Way… FALSE             25679320 Sbo             
    ##  2 1.00e1 Home… FALSE                   97 Unibet          
    ##  3 8.00e1 3Way… FALSE             25679219 Marathon        
    ##  4 1.20e1 Over… FALSE             25679320 Sbo             
    ##  5 3.80e1 Over… FALSE             25679320 Sbo             
    ##  6 4.70e1 Over… FALSE             25679219 Marathon        
    ##  7 9.76e5 HT/F… FALSE             25679320 Sbo             
    ##  8 9.76e5 Clea… FALSE                    1 10Bet           
    ##  9 8.59e6 Clea… FALSE                    2 bet365          
    ## 10 9.76e5 Both… FALSE             25679219 Marathon        
    ## # … with 41 more rows, and 12 more variables:
    ## #   bookmaker_data_odds_data_label <chr>,
    ## #   bookmaker_data_odds_data_value <chr>,
    ## #   bookmaker_data_odds_data_probability <chr>,
    ## #   bookmaker_data_odds_data_dp3 <chr>,
    ## #   bookmaker_data_odds_data_american <int>,
    ## #   bookmaker_data_odds_data_winning <lgl>,
    ## #   bookmaker_data_odds_data_stop <lgl>,
    ## #   bookmaker_data_odds_data_last_update_date <chr>,
…
``` r
# by season id
```

## Bookmarkers

``` r
get_bookmakers()
```

    ## # A tibble: 42 x 2
    ##       id name       
    ##    <int> <chr>      
    ##  1     1 10Bet      
    ##  2     2 bet365     
    ##  3     3 188Bet     
    ##  4     5 5 Dimes    
    ##  5     7 888Sport   
    ##  6     9 BetFred    
    ##  7    11 Bet-At-Home
    ##  8    13 BetCRIS    
    ##  9    15 Betfair    
    ## 10    17 BetOnline  
    ## # … with 32 more rows
…
``` r
# not working?
```

## Markets

``` r
get_markets()
```

    ## # A tibble: 516 x 2
    ##       id name                
    ##    <int> <chr>               
    ##  1     1 3Way Result         
    ##  2    10 Home/Away           
    ##  3    12 Over/Under          
    ##  4    28 Asian Handicap      
    ##  5    37 3Way Result 1st Half
    ##  6    38 Over/Under 1st Half 
    ##  7    47 Over/Under 2nd Half 
    ##  8    63 Double Chance       
    ##  9    69 Team To Score First 
    ## 10    75 Team To Score Last  
    ## # … with 506 more rows
…
``` r
# not working?
```

## Team Squads

``` r
get_team_squads(season_id = 12963, team_id = 180)
```

    ## # A tibble: 25 x 40
    ##    player_id position_id number captain injured minutes appearences lineups
    ##        <int>       <int>  <int>   <int> <lgl>     <int>       <int>   <int>
    ##  1    172042           1      1       0 FALSE      1080          12      12
    ##  2    173098           1     13       0 FALSE         0           0       0
    ##  3     12321           2      2       0 FALSE      3131          36      35
    ##  4      3004           2      5       0 FALSE      2054          26      24
    ##  5    172665           2     16       0 FALSE      1490          17      16
    ##  6    174170           2     18       0 FALSE       172           2       2
    ##  7    173080           2      3       0 FALSE      3124          35      35
    ##  8      7057           3      6       0 FALSE      3044          35      34
    ##  9      2302           3      8       0 FALSE      2668          34      29
    ## 10      2259           3     29       0 FALSE      2478          34      29
    ## # … with 15 more rows, and 32 more variables: substitute_in <int>,
    ## #   substitute_out <int>, substitutes_on_bench <int>, goals <int>,
    ## #   assists <int>, saves <int>, inside_box_saves <int>, dispossesed <int>,
    ## #   interceptions <int>, yellowcards <int>, yellowred <int>,
    ## #   redcards <int>, tackles <int>, blocks <int>, hit_post <int>,
    ## #   fouls_committed <int>, fouls_drawn <int>, crosses_total <int>,
    ## #   crosses_accurate <int>, dribbles_attempts <int>,
    ## #   dribbles_success <int>, dribbles_dribbled_past <int>,
    ## #   duels_total <int>, duels_won <int>, passes_total <int>,
…
